\relax 
\providecommand\hyper@newdestlabel[2]{}
\providecommand\HyperFirstAtBeginDocument{\AtBeginDocument}
\HyperFirstAtBeginDocument{\ifx\hyper@anchor\@undefined
\global\let\oldcontentsline\contentsline
\gdef\contentsline#1#2#3#4{\oldcontentsline{#1}{#2}{#3}}
\global\let\oldnewlabel\newlabel
\gdef\newlabel#1#2{\newlabelxx{#1}#2}
\gdef\newlabelxx#1#2#3#4#5#6{\oldnewlabel{#1}{{#2}{#3}}}
\AtEndDocument{\ifx\hyper@anchor\@undefined
\let\contentsline\oldcontentsline
\let\newlabel\oldnewlabel
\fi}
\fi}
\global\let\hyper@last\relax 
\gdef\HyperFirstAtBeginDocument#1{#1}
\providecommand\HyField@AuxAddToFields[1]{}
\providecommand\HyField@AuxAddToCoFields[2]{}
\citation{mescal}
\providecommand \oddpage@label [2]{}
\babel@aux{english}{}
\pgfsyspdfmark {pgfid1}{3729359}{25543424}
\@writefile{toc}{\contentsline {section}{\numberline {1}Introduction}{1}{section.1}}
\newlabel{sec:introduction}{{1}{1}{Introduction}{section.1}{}}
\@writefile{toc}{\contentsline {section}{\numberline {2}Theoretical Background}{2}{section.2}}
\newlabel{sec:theoretical_background}{{2}{2}{Theoretical Background}{section.2}{}}
\@writefile{toc}{\contentsline {subsection}{\numberline {2.1}Derivation from Linear Response}{2}{subsection.2.1}}
\newlabel{eq:linear_response}{{1}{2}{Derivation from Linear Response}{equation.2.1}{}}
\newlabel{eq:permanent_field}{{2}{2}{Derivation from Linear Response}{equation.2.2}{}}
\newlabel{eq:induced_field}{{3}{2}{Derivation from Linear Response}{equation.2.3}{}}
\newlabel{eq:dipole_dipole}{{4}{2}{Derivation from Linear Response}{equation.2.4}{}}
\newlabel{eq:linear_system}{{5}{2}{Derivation from Linear Response}{equation.2.5}{}}
\newlabel{eq:linear_system_detail}{{6}{2}{Derivation from Linear Response}{equation.2.6}{}}
\citation{dressel_electrodynamics_2002}
\@writefile{toc}{\contentsline {subsection}{\numberline {2.2}Derivation from the Total Energy}{3}{subsection.2.2}}
\newlabel{eq:total_energy}{{9}{3}{Derivation from the Total Energy}{equation.2.9}{}}
\newlabel{eq:linear_system_energy}{{14}{4}{Derivation from the Total Energy}{equation.2.14}{}}
\@writefile{toc}{\contentsline {subsection}{\numberline {2.3}Periodic Boundary Conditions}{4}{subsection.2.3}}
\newlabel{eq:linear_system_pbc}{{16}{4}{Periodic Boundary Conditions}{equation.2.16}{}}
\citation{dielectric}
\@writefile{toc}{\contentsline {subsection}{\numberline {2.4}Solution of the Linear System and Dielectric Response}{5}{subsection.2.4}}
\@writefile{toc}{\contentsline {subsubsection}{\numberline {2.4.1}Resolution methods}{5}{subsubsection.2.4.1}}
\@writefile{toc}{\contentsline {subsubsection}{\numberline {2.4.2}Dielectric Response}{5}{subsubsection.2.4.2}}
\newlabel{eq:zeta}{{20}{5}{Dielectric Response}{equation.2.20}{}}
\@writefile{toc}{\contentsline {subsubsection}{\numberline {2.4.3}Spectral Decomposition of $\relax $\@@underline {\hbox {\bm  {\zeta }}}\mathsurround \z@ $\relax $}{6}{subsubsection.2.4.3}}
\newlabel{eq:zeta_system}{{24}{6}{Spectral Decomposition of $\tensor {\zeta }$}{equation.2.24}{}}
\newlabel{eq:zeta_hessian}{{27}{6}{Spectral Decomposition of $\tensor {\zeta }$}{equation.2.27}{}}
\newlabel{eq:zeta_spectral_forms}{{30}{7}{Spectral Decomposition of $\tensor {\zeta }$}{equation.2.30}{}}
\newlabel{eq:zeta_spectral_forms1}{{30a}{7}{Spectral Decomposition of $\tensor {\zeta }$}{equation.2.1}{}}
\newlabel{eq:zeta_spectral_forms2}{{30b}{7}{Spectral Decomposition of $\tensor {\zeta }$}{equation.2.2}{}}
\newlabel{eq:zeta_spectral_forms3}{{30c}{7}{Spectral Decomposition of $\tensor {\zeta }$}{equation.2.3}{}}
\@writefile{toc}{\contentsline {section}{\numberline {3}Compiling and Testing Tequila}{8}{section.3}}
\newlabel{sec:compiling_testing}{{3}{8}{Compiling and Testing Tequila}{section.3}{}}
\@writefile{toc}{\contentsline {section}{\numberline {4}Usage}{9}{section.4}}
\newlabel{sec:usage}{{4}{9}{Usage}{section.4}{}}
\citation{dielectric}
\@writefile{toc}{\contentsline {subsection}{\numberline {4.1}The input file}{10}{subsection.4.1}}
\newlabel{sec:input_file}{{4.1}{10}{The input file}{subsection.4.1}{}}
\@writefile{lot}{\contentsline {table}{\numberline {1}{\ignorespaces Structure of the input file for Tequila.}}{11}{table.1}}
\newlabel{table:input_file}{{1}{11}{Structure of the input file for Tequila}{table.1}{}}
\@writefile{toc}{\contentsline {subsection}{\numberline {4.2}The data file}{12}{subsection.4.2}}
\newlabel{sec:data_file}{{4.2}{12}{The data file}{subsection.4.2}{}}
\@writefile{lot}{\contentsline {table}{\numberline {2}{\ignorespaces Structure of the data file for Tequila.}}{12}{table.2}}
\newlabel{table:data_file}{{2}{12}{Structure of the data file for Tequila}{table.2}{}}
\citation{dielectric}
\@writefile{toc}{\contentsline {subsection}{\numberline {4.3}Tequila's output files}{13}{subsection.4.3}}
\newlabel{sec:output_file}{{4.3}{13}{Tequila's output files}{subsection.4.3}{}}
\@writefile{toc}{\contentsline {subsubsection}{\numberline {4.3.1}Runtime output}{13}{subsubsection.4.3.1}}
\@writefile{toc}{\contentsline {subsubsection}{\numberline {4.3.2}Main output}{13}{subsubsection.4.3.2}}
\@writefile{toc}{\contentsline {subsubsection}{\numberline {4.3.3}Potentials and Fields}{13}{subsubsection.4.3.3}}
\@writefile{toc}{\contentsline {subsubsection}{\numberline {4.3.4}Hessian Matrix and Source Vector}{14}{subsubsection.4.3.4}}
\@writefile{toc}{\contentsline {subsubsection}{\numberline {4.3.5}Eigenvectors and Eigenvalues}{14}{subsubsection.4.3.5}}
\@writefile{toc}{\contentsline {subsubsection}{\numberline {4.3.6}Response}{14}{subsubsection.4.3.6}}
\bibstyle{plainnat}
\bibdata{references}
\bibcite{dressel_electrodynamics_2002}{{1}{}{{Dressel and Gr\IeC {\"u}ner}}{{}}}
\bibcite{mescal}{{2}{}{{D\IeC {\textquoteright }Avino et~al.}}{{D\IeC {\textquoteright }Avino, Muccioli, Zannoni, Beljonne, and Soos}}}
\bibcite{dielectric}{{3}{}{{D\IeC {\textquoteright }Avino et~al.}}{{D\IeC {\textquoteright }Avino, Vanzo, and Soos}}}
